An R Markdown document converted from “property.ipynb”
…
res_16 <- res %>% 
    filter(between(BEDROOMS, 1, 6),
           !is.na(BEDROOMS)) %>% 
    mutate(BEDROOMS = as.integer(BEDROOMS))
res_16

## # A tibble: 1,304 × 47
##    PROPERTYADD…¹ PROPE…² PROPE…³ MUNID…⁴ SCHOO…⁵ NEIGH…⁶ TAXDESC OWNER…⁷ CLASS…⁸
##    <chr>         <chr>     <dbl> <chr>   <chr>   <chr>   <chr>   <chr>   <chr>  
##  1 FORT DUQUESN… PITTSB…   15222 2nd Wa… City O… PENNHO… 20 - T… REGULA… RESIDE…
##  2 FORT DUQUESN… PITTSB…   15222 2nd Wa… City O… PENNHO… 20 - T… REGULAR RESIDE…
##  3 SMALLMAN ST   PITTSB…   15222 2nd Wa… City O… STRIP … 20 - T… REGULAR RESIDE…
##  4 SMALLMAN ST   PITTSB…   15222 2nd Wa… City O… STRIP … 20 - T… REGULA… RESIDE…
##  5 SMALLMAN ST   PITTSB…   15222 2nd Wa… City O… STRIP … 20 - T… REGULAR RESIDE…
##  6 SMALLMAN ST   PITTSB…   15222 2nd Wa… City O… STRIP … 20 - T… REGULA… RESIDE…
##  7 SMALLMAN ST   PITTSB…   15222 2nd Wa… City O… STRIP … 20 - T… REGULA… RESIDE…
##  8 SMALLMAN ST   PITTSB…   15222 2nd Wa… City O… STRIP … 20 - T… REGULAR RESIDE…
##  9 SMALLMAN ST   PITTSB…   15222 2nd Wa… City O… STRIP … 20 - T… REGULAR RESIDE…
## 10 LIBERTY AVE   PITTSB…   15222 2nd Wa… City O… KEYSTO… 20 - T… REGULA… RESIDE…
## # … with 1,294 more rows, 38 more variables: USEDESC <chr>, LOTAREA <dbl>,
## #   HOMESTEADFLAG <chr>, ABATEMENTFLAG <lgl>, RECORDDATE <chr>, SALEDATE <chr>,
## #   SALEPRICE <dbl>, SALEDESC <chr>, PREVSALEDATE <chr>, PREVSALEPRICE <dbl>,
## #   COUNTYBUILDING <dbl>, COUNTYLAND <dbl>, COUNTYTOTAL <dbl>,
## #   COUNTYEXEMPTBLDG <dbl>, LOCALBUILDING <dbl>, LOCALLAND <dbl>,
## #   LOCALTOTAL <dbl>, FAIRMARKETBUILDING <dbl>, FAIRMARKETLAND <dbl>,
## #   FAIRMARKETTOTAL <dbl>, STYLEDESC <chr>, STORIES <dbl>, YEARBLT <dbl>, …
## # ℹ Use `print(n = ...)` to see more rows, and `colnames()` to see all variable names
…
